\relax 
\@setckpt{Introduction}{
\setcounter{page}{5}
\setcounter{equation}{0}
\setcounter{enumi}{0}
\setcounter{enumii}{0}
\setcounter{enumiii}{0}
\setcounter{enumiv}{0}
\setcounter{footnote}{0}
\setcounter{mpfootnote}{0}
\setcounter{part}{0}
\setcounter{section}{0}
\setcounter{subsection}{0}
\setcounter{subsubsection}{0}
\setcounter{paragraph}{0}
\setcounter{subparagraph}{0}
\setcounter{figure}{0}
\setcounter{table}{0}
\setcounter{BibCnt}{0}
\setcounter{ContinuedFloat}{0}
\setcounter{APAenum}{0}
\setcounter{appendix}{0}
\setcounter{posttable}{0}
\setcounter{postfigure}{0}
\setcounter{@todonotes@numberoftodonotes}{0}
\setcounter{maskedRefs}{0}
}
